{
  "name": "Belgrade Subway",
  "image": {
    "path": "/map3.jpg",
    "size": {
      "w": 800,
      "h": 533
    }
  },
  "cities":  [
    {
      "name": "Paris",
      "coordinates": [100, 200]
    },
    {
      "name": "Berlin",
      "coordinates":  [100, 200]
    },
    {
      "name": "London",
      "coordinates":  [100, 200]
    },
    {
      "name": "Madrid",
      "coordinates":  [100, 200]
    },
    {
      "name": "Rome",
      "coordinates":  [100, 200]
    },
    {
      "name": "Warsaw",
      "coordinates":  [100, 200]
    }
  ],
  "potentialStretches": [
    {
      "length":  4,
      "jokersNeeded": 2,
      "colorId":  1,
      "tunnel": false,
      "firstCity":  {
        "name": "Paris"
      },
      "secondCity": {
        "name": "London"
      }
    },
    {
      "length":  3,
      "jokersNeeded": 0,
      "colorId":  2,
      "tunnel": false,
      "firstCity":  {
        "name": "Berlin"
      },
      "secondCity": {
        "name": "Warsaw"
      }
    },
    {
      "length":  3,
      "jokersNeeded": 0,
      "colorId":  2,
      "tunnel": false,
      "firstCity":  {
        "name": "Paris"
      },
      "secondCity": {
        "name": "Berlin"
      }
    },
    {
      "length":  6,
      "jokersNeeded": 0,
      "colorId":  3,
      "tunnel": true,
      "firstCity":  {
        "name": "Madrid"
      },
      "secondCity": {
        "name": "Paris"
      }
    }
  ]
}
